Module 7: Lab Starter KEY
…
Residual standard error: 5309 on 46 degrees of freedom
  (2 observations deleted due to missingness)
Multiple R-squared:  0.08996,   Adjusted R-squared:  0.07018 
F-statistic: 4.547 on 1 and 46 DF,  p-value: 0.03834

Question: How would you interpret the intercept? Is this meaningful?

Now, let’s center the income variable and re-run the regression.

# A tibble: 50 × 5
   state population income winter income_c
   <chr>      <dbl>  <dbl>  <dbl>    <dbl>
 1 ME          1228  27854     22       NA
 2 NH          1109  36329     22       NA
 3 VT           563  29792     16       NA
 4 MA          6016  36952     30       NA
 5 RI          1003  32181     32       NA
 6 CT          3287  41721     30       NA
 7 NY         17990  32965     28       NA
 8 NJ          7730  40927     35       NA
 9 PA         11882  29069     32       NA
10 OH         10847  28706     31       NA
# ℹ 40 more rows

# A tibble: 50 × 5
   state population income winter income_c
   <chr>      <dbl>  <dbl>  <dbl>    <dbl>
 1 ME          1228  27854     22   -790. 
 2 NH          1109  36329     22   7685. 
 3 VT           563  29792     16   1148. 
 4 MA          6016  36952     30   8308. 
 5 RI          1003  32181     32   3537. 
 6 CT          3287  41721     30  13077. 
 7 NY         17990  32965     28   4321. 
 8 NJ          7730  40927     35  12283. 
 9 PA         11882  29069     32    425. 
10 OH         10847  28706     31     62.2
# ℹ 40 more rows
…
