Module 7: Lab Starter KEY
…
Question: How would you interpret the intercept? Is this meaningful?

Now, let’s center the income variable and re-run the regression.

# students: fill in `mutate()` function to create income variable

#first, create the income variable
pop <- pop %>% 
  mutate(income_c = income-(mean(income)))

#check out your data - what do you notice? what might have happened?
pop

# A tibble: 50 × 5
   state population income winter income_c
   <chr>      <dbl>  <dbl>  <dbl>    <dbl>
 1 ME          1228  27854     22       NA
 2 NH          1109  36329     22       NA
 3 VT           563  29792     16       NA
 4 MA          6016  36952     30       NA
 5 RI          1003  32181     32       NA
 6 CT          3287  41721     30       NA
 7 NY         17990  32965     28       NA
 8 NJ          7730  40927     35       NA
 9 PA         11882  29069     32       NA
10 OH         10847  28706     31       NA
# ℹ 40 more rows

#let's try again!
pop <- pop %>% 
  mutate(income_c = income-(mean(income, na.rm=TRUE)))

#check out the data again -- much better!
pop

# A tibble: 50 × 5
   state population income winter income_c
   <chr>      <dbl>  <dbl>  <dbl>    <dbl>
 1 ME          1228  27854     22   -790. 
 2 NH          1109  36329     22   7685. 
 3 VT           563  29792     16   1148. 
 4 MA          6016  36952     30   8308. 
 5 RI          1003  32181     32   3537. 
 6 CT          3287  41721     30  13077. 
 7 NY         17990  32965     28   4321. 
 8 NJ          7730  40927     35  12283. 
 9 PA         11882  29069     32    425. 
10 OH         10847  28706     31     62.2
# ℹ 40 more rows
…
